Employee,EmployeeID,Company,"Company ID",Created
"james bond",1,test,1,"2017-12-29 00:00:00"
"Mighty Bond",2,test,1,"2017-12-29 00:00:00"
"William Hanna",3,"company 2",2,"2017-12-29 00:00:00"
"Joseph Barbera",4,"company 2",2,"2017-12-29 00:00:00"
"Lucy Sky",5,"company 2",2,"2017-12-29 00:00:00"
